{
    "items":[
        {
            "badge_counts":{
                "bronze":2556,
                "silver":2152,
                "gold":195
            },
            "account_id":11975,
            "is_employee":true,
            "last_modified_date":1550679604,
            "last_access_date":1551810911,
            "reputation_change_year":11273,
            "reputation_change_quarter":11273,
            "reputation_change_month":773,
            "reputation_change_week":595,
            "reputation_change_day":40,
            "reputation":788155,
            "creation_date":1222667162,
            "user_type":"moderator",
            "user_id":23354,
            "accept_rate":100,
            "location":"Forest of Dean, United Kingdom",
            "website_url":"http://blog.marcgravell.com",
            "link":"https://stackoverflow.com/users/23354/marc-gravell",
            "profile_image":"https://i.stack.imgur.com/3vbu5.jpg?s=128&g=1",
            "display_name":"Marc Gravell"
        },
        {
            "badge_counts":{
                "bronze":2316,
                "silver":2502,
                "gold":138
            },
            "account_id":35417,
            "is_employee":false,
            "last_modified_date":1551841803,
            "last_access_date":1551829955,
            "reputation_change_year":16514,
            "reputation_change_quarter":16514,
            "reputation_change_month":1318,
            "reputation_change_week":819,
            "reputation_change_day":85,
            "reputation":716305,
            "creation_date":1241362437,
            "user_type":"moderator",
            "user_id":100297,
            "location":"Cambridge, UK",
            "website_url":"http://www.zopatista.com/",
            "link":"https://stackoverflow.com/users/100297/martijn-pieters",
            "profile_image":"https://www.gravatar.com/avatar/24780fb6df85a943c7aea0402c843737?s=128&d=identicon&r=PG",
            "display_name":"Martijn Pieters"
        },
        {
            "badge_counts":{
                "bronze":1103,
                "silver":1197,
                "gold":115
            },
            "account_id":7598,
            "is_employee":true,
            "last_modified_date":1551539109,
            "last_access_date":1551825868,
            "reputation_change_year":6285,
            "reputation_change_quarter":6285,
            "reputation_change_month":360,
            "reputation_change_week":240,
            "reputation_change_day":10,
            "reputation":535246,
            "creation_date":1221587590,
            "user_type":"moderator",
            "user_id":13249,
            "accept_rate":100,
            "location":"Winston-Salem, NC",
            "website_url":"https://nickcraver.com/blog/",
            "link":"https://stackoverflow.com/users/13249/nick-craver",
            "profile_image":"https://i.stack.imgur.com/nGCYr.jpg?s=128&g=1",
            "display_name":"Nick Craver"
        },
        {
            "badge_counts":{
                "bronze":1201,
                "silver":1165,
                "gold":129
            },
            "account_id":37175,
            "is_employee":false,
            "last_modified_date":1551350424,
            "last_access_date":1551808450,
            "reputation_change_year":9746,
            "reputation_change_quarter":9746,
            "reputation_change_month":750,
            "reputation_change_week":490,
            "reputation_change_day":10,
            "reputation":524434,
            "creation_date":1242214829,
            "user_type":"moderator",
            "user_id":106224,
            "accept_rate":96,
            "location":"Singapore",
            "website_url":"https://NOVALISTIC.com",
            "link":"https://stackoverflow.com/users/106224/boltclock",
            "profile_image":"https://www.gravatar.com/avatar/a2d818d801ce38a33807f68fdd92043a?s=128&d=identicon&r=PG",
            "display_name":"BoltClock"
        },
        {
            "badge_counts":{
                "bronze":697,
                "silver":540,
                "gold":62
            },
            "account_id":378,
            "is_employee":false,
            "last_modified_date":1551779108,
            "last_access_date":1551815143,
            "reputation_change_year":5948,
            "reputation_change_quarter":5948,
            "reputation_change_month":487,
            "reputation_change_week":314,
            "reputation_change_day":0,
            "reputation":397005,
            "creation_date":1218010528,
            "user_type":"moderator",
            "user_id":476,
            "accept_rate":70,
            "location":"Germany",
            "website_url":"http://kunststube.net",
            "link":"https://stackoverflow.com/users/476/deceze",
            "profile_image":"https://www.gravatar.com/avatar/a235706e3d81b614acaec3368edfea4b?s=128&d=identicon&r=PG",
            "display_name":"deceze"
        },
        {
            "badge_counts":{
                "bronze":563,
                "silver":427,
                "gold":65
            },
            "account_id":93689,
            "is_employee":false,
            "last_modified_date":1551539109,
            "last_access_date":1551830391,
            "reputation_change_year":4557,
            "reputation_change_quarter":4557,
            "reputation_change_month":275,
            "reputation_change_week":195,
            "reputation_change_day":10,
            "reputation":298058,
            "creation_date":1264108614,
            "user_type":"moderator",
            "user_id":256196,
            "accept_rate":77,
            "location":"Melbourne, Australia",
            "website_url":"",
            "link":"https://stackoverflow.com/users/256196/bohemian",
            "profile_image":"https://www.gravatar.com/avatar/d84b558fd67be10d5a718fb94231909d?s=128&d=identicon&r=PG",
            "display_name":"Bohemian"
        },
        {
            "badge_counts":{
                "bronze":561,
                "silver":468,
                "gold":61
            },
            "account_id":113304,
            "is_employee":false,
            "last_modified_date":1551354608,
            "last_access_date":1551803190,
            "reputation_change_year":3807,
            "reputation_change_quarter":3807,
            "reputation_change_month":240,
            "reputation_change_week":170,
            "reputation_change_day":10,
            "reputation":240401,
            "creation_date":1269184441,
            "user_type":"moderator",
            "user_id":298479,
            "accept_rate":87,
            "location":"Germany",
            "website_url":"https://www.metalspy.de",
            "link":"https://stackoverflow.com/users/298479/thiefmaster",
            "profile_image":"https://www.gravatar.com/avatar/bc66db28aa7c3fa8e4ce4238b696dee9?s=128&d=identicon&r=PG",
            "display_name":"ThiefMaster"
        },
        {
            "badge_counts":{
                "bronze":468,
                "silver":379,
                "gold":35
            },
            "account_id":152400,
            "is_employee":false,
            "last_modified_date":1551847202,
            "last_access_date":1551850594,
            "reputation_change_year":2998,
            "reputation_change_quarter":2998,
            "reputation_change_month":206,
            "reputation_change_week":186,
            "reputation_change_day":20,
            "reputation":193844,
            "creation_date":1276239456,
            "user_type":"moderator",
            "user_id":366904,
            "accept_rate":82,
            "location":"Sunnyvale, CA, USA",
            "website_url":"https://stackoverflow.com/cv/codygray",
            "link":"https://stackoverflow.com/users/366904/cody-gray",
            "profile_image":"https://www.gravatar.com/avatar/3f8912af19fe86b7b34a0b011a962460?s=128&d=identicon&r=PG",
            "display_name":"Cody Gray"
        },
        {
            "badge_counts":{
                "bronze":355,
                "silver":291,
                "gold":47
            },
            "account_id":188123,
            "is_employee":true,
            "last_modified_date":1551783907,
            "last_access_date":1551835979,
            "reputation_change_year":3027,
            "reputation_change_quarter":3027,
            "reputation_change_month":180,
            "reputation_change_week":70,
            "reputation_change_day":0,
            "reputation":191376,
            "creation_date":1282330912,
            "user_type":"moderator",
            "user_id":426671,
            "accept_rate":96,
            "location":"Arizona",
            "website_url":"https://tarynpivots.com",
            "link":"https://stackoverflow.com/users/426671/taryn",
            "profile_image":"https://www.gravatar.com/avatar/32d2ee92e99e287861b25f508416a787?s=128&d=identicon&r=PG",
            "display_name":"Taryn"
        },
        {
            "badge_counts":{
                "bronze":293,
                "silver":273,
                "gold":29
            },
            "account_id":81168,
            "is_employee":false,
            "last_modified_date":1551804605,
            "last_access_date":1551830853,
            "reputation_change_year":3455,
            "reputation_change_quarter":3455,
            "reputation_change_month":169,
            "reputation_change_week":119,
            "reputation_change_day":20,
            "reputation":180235,
            "creation_date":1260469220,
            "user_type":"moderator",
            "user_id":229044,
            "accept_rate":83,
            "website_url":"http://meagar.net",
            "link":"https://stackoverflow.com/users/229044/meagar",
            "profile_image":"https://i.stack.imgur.com/4Mfli.png?s=128&g=1",
            "display_name":"meagar"
        },
        {
            "badge_counts":{
                "bronze":257,
                "silver":305,
                "gold":51
            },
            "account_id":258754,
            "is_employee":false,
            "last_modified_date":1551809728,
            "last_access_date":1551845411,
            "reputation_change_year":9885,
            "reputation_change_quarter":9885,
            "reputation_change_month":728,
            "reputation_change_week":498,
            "reputation_change_day":20,
            "reputation":177787,
            "creation_date":1292277283,
            "user_type":"moderator",
            "user_id":541136,
            "accept_rate":96,
            "location":"NYC, NY, United States",
            "website_url":"https://aaronchall.github.io/",
            "link":"https://stackoverflow.com/users/541136/aaron-hall",
            "profile_image":"https://i.stack.imgur.com/wftMn.jpg?s=128&g=1",
            "display_name":"Aaron Hall"
        },
        {
            "badge_counts":{
                "bronze":362,
                "silver":345,
                "gold":40
            },
            "account_id":363391,
            "is_employee":false,
            "last_modified_date":1551815118,
            "last_access_date":1551838395,
            "reputation_change_year":2536,
            "reputation_change_quarter":2536,
            "reputation_change_month":106,
            "reputation_change_week":36,
            "reputation_change_day":0,
            "reputation":169179,
            "creation_date":1302292870,
            "user_type":"moderator",
            "user_id":707111,
            "accept_rate":100,
            "location":"Victoria, BC, Canada",
            "website_url":"",
            "link":"https://stackoverflow.com/users/707111/ry",
            "profile_image":"https://i.stack.imgur.com/oXZkh.jpg?s=128&g=1",
            "display_name":"Ry-"
        },
        {
            "badge_counts":{
                "bronze":545,
                "silver":364,
                "gold":41
            },
            "account_id":10416,
            "is_employee":false,
            "last_modified_date":1548101403,
            "last_access_date":1551827584,
            "reputation_change_year":533,
            "reputation_change_quarter":533,
            "reputation_change_month":70,
            "reputation_change_week":40,
            "reputation_change_day":0,
            "reputation":161659,
            "creation_date":1221926271,
            "user_type":"moderator",
            "user_id":19679,
            "accept_rate":64,
            "location":"Madison, WI",
            "website_url":"http://www.sunsetlakesoftware.com",
            "link":"https://stackoverflow.com/users/19679/brad-larson",
            "profile_image":"https://www.gravatar.com/avatar/52a2ffb44b1c11ab9001cb67e0a0021c?s=128&d=identicon&r=PG",
            "display_name":"Brad Larson"
        },
        {
            "badge_counts":{
                "bronze":281,
                "silver":257,
                "gold":38
            },
            "account_id":7745,
            "is_employee":false,
            "last_modified_date":1551539109,
            "last_access_date":1551818182,
            "reputation_change_year":2236,
            "reputation_change_quarter":2236,
            "reputation_change_month":110,
            "reputation_change_week":110,
            "reputation_change_day":10,
            "reputation":156656,
            "creation_date":1221593992,
            "user_type":"moderator",
            "user_id":13531,
            "accept_rate":75,
            "location":"United States",
            "website_url":"http://crystalempiregames.com",
            "link":"https://stackoverflow.com/users/13531/michael-myers",
            "profile_image":"https://www.gravatar.com/avatar/49f3a2065659f5b4efa05ae29bd0856a?s=128&d=identicon&r=PG",
            "display_name":"Michael Myers"
        },
        {
            "badge_counts":{
                "bronze":420,
                "silver":275,
                "gold":33
            },
            "account_id":36137,
            "is_employee":false,
            "last_modified_date":1551480609,
            "last_access_date":1551839223,
            "reputation_change_year":1712,
            "reputation_change_quarter":1712,
            "reputation_change_month":95,
            "reputation_change_week":95,
            "reputation_change_day":0,
            "reputation":148917,
            "creation_date":1241707558,
            "user_type":"moderator",
            "user_id":102937,
            "accept_rate":90,
            "location":"Lancaster, CA",
            "website_url":"https://www.linkedin.com/in/masterdeveloper",
            "link":"https://stackoverflow.com/users/102937/robert-harvey",
            "profile_image":"https://www.gravatar.com/avatar/1233ec65168f4aae4d939ae8fe6cde1e?s=128&d=identicon&r=PG",
            "display_name":"Robert Harvey"
        },
        {
            "badge_counts":{
                "bronze":228,
                "silver":209,
                "gold":30
            },
            "account_id":620,
            "is_employee":true,
            "last_modified_date":1548295206,
            "last_access_date":1551846039,
            "reputation_change_year":1522,
            "reputation_change_quarter":1522,
            "reputation_change_month":110,
            "reputation_change_week":60,
            "reputation_change_day":0,
            "reputation":129456,
            "creation_date":1218253990,
            "user_type":"moderator",
            "user_id":811,
            "location":"Colorado, United States",
            "website_url":"http://shog9.com",
            "link":"https://stackoverflow.com/users/811/shog9",
            "profile_image":"https://www.gravatar.com/avatar/ae15c48f686a0ecb39848f980b296611?s=128&d=identicon&r=PG",
            "display_name":"Shog9"
        },
        {
            "badge_counts":{
                "bronze":263,
                "silver":211,
                "gold":43
            },
            "account_id":466356,
            "is_employee":false,
            "last_modified_date":1550045414,
            "last_access_date":1551825124,
            "reputation_change_year":2316,
            "reputation_change_quarter":2316,
            "reputation_change_month":237,
            "reputation_change_week":157,
            "reputation_change_day":15,
            "reputation":117424,
            "creation_date":1312059455,
            "user_type":"moderator",
            "user_id":871050,
            "accept_rate":93,
            "location":"Israel",
            "website_url":"http://anime.stackexchange.com",
            "link":"https://stackoverflow.com/users/871050/madara-uchiha",
            "profile_image":"https://www.gravatar.com/avatar/a7a50a9492be737b0c012a839338272a?s=128&d=identicon&r=PG",
            "display_name":"Madara Uchiha"
        },
        {
            "badge_counts":{
                "bronze":506,
                "silver":361,
                "gold":99
            },
            "account_id":75,
            "is_employee":true,
            "last_modified_date":1548632403,
            "last_access_date":1551816484,
            "reputation_change_year":1313,
            "reputation_change_quarter":1313,
            "reputation_change_month":185,
            "reputation_change_week":125,
            "reputation_change_day":10,
            "reputation":117325,
            "creation_date":1217613322,
            "user_type":"moderator",
            "user_id":91,
            "accept_rate":91,
            "location":"Raleigh, NC, United States",
            "website_url":"https://www.Stum.de",
            "link":"https://stackoverflow.com/users/91/michael-stum",
            "profile_image":"https://www.gravatar.com/avatar/411cf599ae9fe1ef80d40644c83c0f78?s=128&d=identicon&r=PG",
            "display_name":"Michael Stum"
        },
        {
            "badge_counts":{
                "bronze":292,
                "silver":218,
                "gold":25
            },
            "account_id":23619,
            "is_employee":false,
            "last_modified_date":1549965016,
            "last_access_date":1551830540,
            "reputation_change_year":1104,
            "reputation_change_quarter":1104,
            "reputation_change_month":65,
            "reputation_change_week":55,
            "reputation_change_day":0,
            "reputation":115112,
            "creation_date":1233055698,
            "user_type":"moderator",
            "user_id":59303,
            "accept_rate":84,
            "location":"United Kingdom",
            "website_url":"",
            "link":"https://stackoverflow.com/users/59303/chrisf",
            "profile_image":"https://i.stack.imgur.com/gIt1g.png?s=128&g=1",
            "display_name":"ChrisF"
        },
        {
            "badge_counts":{
                "bronze":220,
                "silver":175,
                "gold":19
            },
            "account_id":1303256,
            "is_employee":false,
            "last_modified_date":1550162703,
            "last_access_date":1551834272,
            "reputation_change_year":2128,
            "reputation_change_quarter":2128,
            "reputation_change_month":80,
            "reputation_change_week":50,
            "reputation_change_day":0,
            "reputation":100371,
            "creation_date":1331052225,
            "user_type":"moderator",
            "user_id":1252759,
            "accept_rate":100,
            "website_url":"http://sopython.com",
            "link":"https://stackoverflow.com/users/1252759/jon-clements",
            "profile_image":"https://i.stack.imgur.com/E1sVR.jpg?s=128&g=1",
            "display_name":"Jon Clements"
        },
        {
            "badge_counts":{
                "bronze":230,
                "silver":146,
                "gold":21
            },
            "account_id":56144,
            "is_employee":false,
            "last_modified_date":1551332718,
            "last_access_date":1551806017,
            "reputation_change_year":825,
            "reputation_change_quarter":825,
            "reputation_change_month":75,
            "reputation_change_week":60,
            "reputation_change_day":0,
            "reputation":69741,
            "creation_date":1252013648,
            "user_type":"moderator",
            "user_id":168175,
            "accept_rate":88,
            "website_url":"",
            "link":"https://stackoverflow.com/users/168175/flexo",
            "profile_image":"https://i.stack.imgur.com/qxeUf.jpg?s=128&g=1",
            "display_name":"Flexo"
        },
        {
            "badge_counts":{
                "bronze":219,
                "silver":155,
                "gold":28
            },
            "account_id":9063,
            "is_employee":false,
            "last_modified_date":1549097402,
            "last_access_date":1551837111,
            "reputation_change_year":379,
            "reputation_change_quarter":379,
            "reputation_change_month":15,
            "reputation_change_week":10,
            "reputation_change_day":0,
            "reputation":45903,
            "creation_date":1221677035,
            "user_type":"moderator",
            "user_id":16587,
            "accept_rate":85,
            "location":"Springfield, VA, United States",
            "website_url":"http://georgestocker.com",
            "link":"https://stackoverflow.com/users/16587/george-stocker",
            "profile_image":"https://www.gravatar.com/avatar/9ed3482ccbb461fbf8796b251caf8f4d?s=128&d=identicon&r=PG",
            "display_name":"George Stocker"
        },
        {
            "badge_counts":{
                "bronze":154,
                "silver":116,
                "gold":32
            },
            "account_id":285492,
            "is_employee":false,
            "last_modified_date":1551594908,
            "last_access_date":1551849846,
            "reputation_change_year":925,
            "reputation_change_quarter":925,
            "reputation_change_month":36,
            "reputation_change_week":20,
            "reputation_change_day":0,
            "reputation":45115,
            "creation_date":1295599909,
            "user_type":"moderator",
            "user_id":584192,
            "accept_rate":100,
            "location":"NSW, Australia",
            "website_url":"https://samliew.com",
            "link":"https://stackoverflow.com/users/584192/samuel-liew",
            "profile_image":"https://www.gravatar.com/avatar/c2ea8790040ee3f38d779c56dd63e45c?s=128&d=identicon&r=PG",
            "display_name":"Samuel Liew"
        },
        {
            "badge_counts":{
                "bronze":94,
                "silver":85,
                "gold":8
            },
            "account_id":996254,
            "is_employee":true,
            "last_modified_date":1551849311,
            "last_access_date":1551811217,
            "reputation_change_year":495,
            "reputation_change_quarter":495,
            "reputation_change_month":40,
            "reputation_change_week":20,
            "reputation_change_day":0,
            "reputation":45037,
            "creation_date":1319517926,
            "user_type":"moderator",
            "user_id":1012097,
            "accept_rate":77,
            "location":"New York, United States",
            "website_url":"http://www.kirtithorat.com/",
            "link":"https://stackoverflow.com/users/1012097/kirti-thorat",
            "profile_image":"https://i.stack.imgur.com/DMlV2.jpg?s=128&g=1",
            "display_name":"Kirti Thorat"
        },
        {
            "badge_counts":{
                "bronze":132,
                "silver":117,
                "gold":22
            },
            "account_id":89201,
            "is_employee":true,
            "last_modified_date":1546324134,
            "last_access_date":1551825191,
            "reputation_change_year":863,
            "reputation_change_quarter":863,
            "reputation_change_month":50,
            "reputation_change_week":40,
            "reputation_change_day":0,
            "reputation":43069,
            "creation_date":1262940241,
            "user_type":"moderator",
            "user_id":246246,
            "accept_rate":96,
            "location":"Kansas City, MO, United States",
            "website_url":"https://animuson.me",
            "link":"https://stackoverflow.com/users/246246/animuson",
            "profile_image":"https://i.stack.imgur.com/ugRaY.jpg?s=128&g=1",
            "display_name":"animuson"
        },
        {
            "badge_counts":{
                "bronze":102,
                "silver":64,
                "gold":11
            },
            "account_id":3717584,
            "is_employee":false,
            "last_modified_date":1546323616,
            "last_access_date":1551834296,
            "reputation_change_year":330,
            "reputation_change_quarter":330,
            "reputation_change_month":15,
            "reputation_change_week":5,
            "reputation_change_day":0,
            "reputation":37428,
            "creation_date":1386806756,
            "user_type":"moderator",
            "user_id":3093387,
            "accept_rate":100,
            "location":"Michigan",
            "website_url":"",
            "link":"https://stackoverflow.com/users/3093387/josliber",
            "profile_image":"https://i.stack.imgur.com/13nxa.jpg?s=128&g=1",
            "display_name":"josliber"
        },
        {
            "badge_counts":{
                "bronze":81,
                "silver":54,
                "gold":12
            },
            "account_id":2348349,
            "is_employee":false,
            "last_modified_date":1551597004,
            "last_access_date":1551842225,
            "reputation_change_year":700,
            "reputation_change_quarter":700,
            "reputation_change_month":39,
            "reputation_change_week":29,
            "reputation_change_day":0,
            "reputation":37121,
            "creation_date":1360455154,
            "user_type":"moderator",
            "user_id":2057919,
            "accept_rate":100,
            "location":"Houston, TX",
            "website_url":"http://www.edcottrell.com",
            "link":"https://stackoverflow.com/users/2057919/ed-cottrell",
            "profile_image":"https://i.stack.imgur.com/xdRTF.jpg?s=128&g=1",
            "display_name":"Ed Cottrell"
        },
        {
            "badge_counts":{
                "bronze":125,
                "silver":101,
                "gold":12
            },
            "account_id":40051,
            "is_employee":true,
            "last_modified_date":1549847407,
            "last_access_date":1551849674,
            "reputation_change_year":704,
            "reputation_change_quarter":704,
            "reputation_change_month":35,
            "reputation_change_week":35,
            "reputation_change_day":0,
            "reputation":35475,
            "creation_date":1243932125,
            "user_type":"moderator",
            "user_id":115866,
            "accept_rate":88,
            "location":"Berlin, Germany",
            "website_url":"http://balpha.de/",
            "link":"https://stackoverflow.com/users/115866/balpha",
            "profile_image":"https://i.stack.imgur.com/xlgZd.png?s=128&g=1",
            "display_name":"balpha"
        },
        {
            "badge_counts":{
                "bronze":113,
                "silver":88,
                "gold":9
            },
            "account_id":4188,
            "is_employee":true,
            "last_modified_date":1548557400,
            "last_access_date":1551814611,
            "reputation_change_year":200,
            "reputation_change_quarter":200,
            "reputation_change_month":30,
            "reputation_change_week":10,
            "reputation_change_day":0,
            "reputation":32111,
            "creation_date":1221263127,
            "user_type":"moderator",
            "user_id":6212,
            "accept_rate":82,
            "location":"Buffalo, NY",
            "website_url":"http://jasonpunyon.com",
            "link":"https://stackoverflow.com/users/6212/jason-punyon",
            "profile_image":"https://www.gravatar.com/avatar/c88159de92d664d35761fe5828cc5ccd?s=128&d=identicon&r=PG",
            "display_name":"Jason Punyon"
        },
        {
            "badge_counts":{
                "bronze":88,
                "silver":55,
                "gold":9
            },
            "account_id":2524075,
            "is_employee":false,
            "last_modified_date":1551681913,
            "last_access_date":1551808203,
            "reputation_change_year":148,
            "reputation_change_quarter":148,
            "reputation_change_month":-20,
            "reputation_change_week":-20,
            "reputation_change_day":0,
            "reputation":31823,
            "creation_date":1363844279,
            "user_type":"moderator",
            "user_id":2193767,
            "accept_rate":78,
            "location":"Vancouver, BC, Canada",
            "website_url":"",
            "link":"https://stackoverflow.com/users/2193767/thelostmind",
            "profile_image":"https://i.stack.imgur.com/tr7wR.jpg?s=128&g=1",
            "display_name":"TheLostMind"
        }
    ],
    "has_more":true,
    "quota_max":300,
    "quota_remaining":292,
    "page":1,
    "total":87
}
